Hyperparameter Tuning - CAMELS Dataset
…
Check Best Parameters

metrics_df <- collect_metrics(model_params)
print("All metrics:")

[1] "All metrics:"

print(metrics_df)

# A tibble: 75 × 10
   trees min_n tree_depth learn_rate .metric .estimator  mean     n std_err
   <int> <int>      <int>      <dbl> <chr>   <chr>      <dbl> <int>   <dbl>
 1   969     2          7    0.00733 mae     standard   0.101    10 0.00889
 2   969     2          7    0.00733 rmse    standard   0.212    10 0.0291 
 3   969     2          7    0.00733 rsq     standard   0.984    10 0.00340
 4   351     2          7    0.0237  mae     standard   0.103    10 0.00883
 5   351     2          7    0.0237  rmse    standard   0.215    10 0.0292 
 6   351     2          7    0.0237  rsq     standard   0.984    10 0.00340
 7   311     3          4    0.0102  mae     standard   0.124    10 0.0109 
 8   311     3          4    0.0102  rmse    standard   0.256    10 0.0314 
 9   311     3          4    0.0102  rsq     standard   0.983    10 0.00367
10   951     3          8    0.0449  mae     standard   0.102    10 0.00921
# ℹ 65 more rows
# ℹ 1 more variable: .config <chr>
…
